# includes: /QOpenSys/QIBM/ProdData/OPS/.qptfinf.QPYDB.dat
# includes: /QOpenSys/QIBM/ProdData/OPS/.qptfinf.QPYTLKT.dat
# includes: /QOpenSys/QIBM/ProdData/OPS/.qptfinf.QPYFLIP.dat
# includes: /QOpenSys/QIBM/ProdData/OPS/.qptfinf.QPYBTL.dat
# includes: /QOpenSys/QIBM/ProdData/OPS/.qptfinf.QPYDB2.dat
# includes: /QOpenSys/QIBM/ProdData/OPS/.qptfinf.QPYTLKT2.dat
#
# ignore (qptfinf): /QOpenSys/QIBM/ProdData/OPS/.qptfinf.QPYTLKT2.dat
# ignore (file): /QOpenSys/QIBM/ProdData/OPS/.qptfinf.QPYTLKT2.dat

:cp_dir
/QOpenSys/QIBM/ProdData/OPS/Python-pkgs




