# includes: /QOpenSys/QIBM/ProdData/OPS/.qptfinf.QLIBGCC482.dat
# includes: /QOpenSys/QIBM/ProdData/OPS/.qptfinf.QGIT.dat
# includes: /QOpenSys/QIBM/ProdData/OPS/.qptfinf.QICONV.dat
# includes: /QOpenSys/QIBM/ProdData/OPS/.qptfinf.QBASH.dat
# includes: /QOpenSys/QIBM/ProdData/OPS/.qptfinf.QUNZIP.dat
# includes: /QOpenSys/QIBM/ProdData/OPS/.qptfinf.QZIP.dat
#
# ignore (source): /QOpenSys/QIBM/ProdData/OPS/source/zip30.tar.gz
# ignore (file): /QOpenSys/QIBM/ProdData/OPS/source/zip30.tar.gz
# ignore (source): /QOpenSys/QIBM/ProdData/OPS/source
# ignore (qptfinf): /QOpenSys/QIBM/ProdData/OPS/.qptfinf.QZIP.dat
# ignore (file): /QOpenSys/QIBM/ProdData/OPS/.qptfinf.QZIP.dat

:cp_dir
/QOpenSys/QIBM/ProdData/OPS/tools




