# Command:
#   > ./pkg_setup.sh pkg_bash-4.3.lst
# Use:
#   > export PATH=/opt/freeware/bin:$PATH
#   > export LIBPATH=/opt/freeware/lib:$LIBPATH (if error, remove ':$LIBPATH')
#   > any_util (below)
# Contents:
# Other files:

#
# read file
#
:file

#
# rpm list
#
:rpm
http://www.oss4aix.org/download/RPMS/bash/bash-4.3-16.aix5.1.ppc.rpm

