# Command:
#   > ./pkg_setup.sh pkg_perzl_joe-3.7-1.lst
# Use:
#   > export PATH=/opt/freeware/bin:$PATH
#   > export LIBPATH=/opt/freeware/lib:$LIBPATH (if error, remove ':$LIBPATH')
#   > any_util (below)
# Contents:
# Other files:

#
# read file
#
:file

# 
# rpm list
#
:rpm
http://www.oss4aix.org/download/RPMS/joe/joe-3.7-1.aix5.1.ppc.rpm
